{
    "KPlugin": {
        "Description": "Displays preview for markdown files",
        "Description[ca]": "Mostra una vista prèvia dels fitxers Markdown",
        "Description[cs]": "Zobrazí náhledy souborů Markdown",
        "Description[eo]": "Montras antaŭrigardon por markdown dosieroj",
        "Description[es]": "Muestra una vista previa de los archivos Markdown",
        "Description[fi]": "Näyttää esikatselun Markdown-tiedostoista.",
        "Description[fr]": "Affiche un aperçu de fichiers « Markdown »",
        "Description[gl]": "Amosa unha vista previa de ficheiros Markdown.",
        "Description[it]": "Visualizza un'anteprima dei file markdown",
        "Description[ja]": "markdown ファイルのプレビューを表示する",
        "Description[nl]": "Toont voorbeeld van markdown-bestanden",
        "Description[pt]": "Apresenta uma antevisão dos ficheiros Markdown",
        "Description[sl]": "Prikaže predogled datotek markdown",
        "Description[sv]": "Förhandsvisar Markdown-filer",
        "Description[tr]": "Markdown dosyaları için önizlemeler görüntüler",
        "Description[uk]": "Показує попередній перегляд файлів Markdown",
        "Description[x-test]": "xxDisplays preview for markdown filesxx",
        "Name": "Markdown Previewer",
        "Name[ca]": "Previsualitzador del Markdown",
        "Name[cs]": "Náhledy Markdown",
        "Name[eo]": "Markdown-Antaŭrigardilo",
        "Name[es]": "Vista previa de Markdown",
        "Name[fi]": "Markdown-esikatselu",
        "Name[fr]": "Aperçu pour langage « Markdown »",
        "Name[gl]": "Xerador de vista previa de Markdown",
        "Name[it]": "Strumento di anteprima Markdown",
        "Name[ja]": "Markdown ビューアー",
        "Name[nl]": "Markdown vooraf bekijken",
        "Name[pt]": "Antevisão de Markdown",
        "Name[sl]": "Predogledovalnik Markdown",
        "Name[sv]": "Markdown förhandsvisning",
        "Name[tr]": "Markdown Önizleyicisi",
        "Name[uk]": "Засіб перегляду Markdown",
        "Name[x-test]": "xxMarkdown Previewerxx"
    }
}
